{"_id":{"$oid":"5f4dc255dade5c206882b0a5"},"titulo":"¿Cómo y dónde adoptar?","subtitulo":"Requisitos para adoptar perros","imgUrl":"https://naturespreservepetcare.com/wp-content/uploads/2019/08/dogs-and-cats-1.jpg","contenido":"Si ya has valorado todos estos aspectos y decides seguir adelante con la adopción, lo primero que debes hacer es informarte de cómo adoptar perros, conociendo las vías y los condicionantes para hacerlo, así como los requisitos para adoptar un perro. Actualmente, existen múltiples protectoras, refugios, albergues, asociaciones y otras entidades sin ánimo de lucro de carácter local, que ofrecen la posibilidad de adoptar perros de diferentes edades, tamaño, razas y características.\n\nLa mayoría de ellas disponen de una web que te permite conocer los distintos perfiles de perros en adopción (edad, tamaño, historia, carácter), e incluso algunas de ellas ofrecen la opción de que puedas filtrar la búsqueda según los parámetros que hayas preestablecido.\nSi la entidad seleccionada está cerca de tu localidad, te recomendamos que realices una visita para conocer a los perros y recibir un asesoramiento más personalizado. Piensa que muchas protectoras ofrecen la posibilidad de que puedas pasear al perro escogido o acogerlo de forma temporal antes de formalizar la adopción, con el fin de que puedas valorar vuestro nivel de afinidad y bienestar conjunto.","__v":0}
{"_id":{"$oid":"5f4dc448076701319444e9c1"},"titulo":"Plan de Vacunación Gatitos","subtitulo":"¿Cuándo ponerle vacunas?","imgUrl":"https://scontent.fscl9-1.fna.fbcdn.net/v/t1.0-9/45488855_253326298675592_6600936126280630272_o.jpg?_nc_cat=101&_nc_sid=8bfeb9&_nc_ohc=kPNCIX8KexYAX8Rlags&_nc_ht=scontent.fscl9-1.fna&oh=7318ccac8d58794c20d415d832d2a5d8&oe=5F728BD9","contenido":"2 meses: Vacuna trivalente frente a la panleucopenia, el calcivirus y la rinotraqueitis.\n\n2 meses y medio: Leucemia felina.\n\n3 meses: Revacunación de la trivalente (segunda dosis)\n\n3 meses y medio: Revacunación de la leucemia (segunda dosis)\n\n4 meses: Vacuna contra la rabia.","__v":0}
{"_id":{"$oid":"5f4dc956076701319444e9c2"},"titulo":"Alergia a las pulgas en Perros","subtitulo":"¿Cuándo mi perro tiene alergia?","imgUrl":"https://www.animalshealth.es/fileuploads/news/pulgamesa-de-trabajo-11.jpg","contenido":"La dermatitis alérgica a la picadura de las pulgas (DAPP) es una hipersensibilidad mixta, tipo I y IV frente a los antígenos contenidos en la saliva de las pulgas. Es la afección cutánea más frecuente en perros y gatos en lugares cálidos y más o menos húmedos (área mediterránea). En zonas continentales suele ser un proceso estacional, iniciándose en primavera o verano y cesando en otoño o invierno. Sin embargo, una vez establecido el estado alérgico basta una picadura semanal para su mantenimiento, por lo que suele convertirse en un proceso perenne. La infestación por pulgas no conlleva necesariamente a una DAPP, por lo que no hay que confundir los dos procesos.\n\nLa DAPP es rara encontrarla antes de los 6 meses de edad. Suele presentarse entre el año y los 3 años, aunque algunos autores consideran el periodo de aparición de los 3 a 5 años. Los Pastores alsacianos y Boyeros de Flandes parecen estar predispuestos a esta clase de alergia.","__v":0}
