{"_id":{"$oid":"5f508cc401018d3390cff8fd"},"email":"mantoniosolis@gmail.com","nombre":"Marco Antonio Solís","mascota":"Roedores","servicio":"Peluquería","fechaSolicitud":{"$date":"2020-09-09T00:00:00Z"},"seleccionaHora":17,"crearSolicitud":{"$date":"2020-09-03T06:27:16.56Z"},"__v":0}
{"_id":{"$oid":"5f508cdf01018d3390cff8fe"},"email":"chayanne@gmail.com","nombre":"Chayanne","mascota":"Exótico","servicio":"Peluquería","fechaSolicitud":{"$date":"2020-09-15T00:00:00Z"},"seleccionaHora":18,"crearSolicitud":{"$date":"2020-09-03T06:27:43.184Z"},"__v":0}
{"_id":{"$oid":"5f508d3e01018d3390cff8ff"},"email":"raphael.esp@gmail.com","nombre":"Rafael de España","mascota":"Perros","servicio":"Vacunación","fechaSolicitud":{"$date":"2020-09-22T00:00:00Z"},"seleccionaHora":21,"crearSolicitud":{"$date":"2020-09-03T06:29:18.321Z"},"__v":0}
